…
```r
dino_pred %>%
  group_by(id) %>%
  ppv(dataset, .pred_class) #Prediction Positive Values
```

```
## # A tibble: 25 x 4
##    id          .metric .estimator .estimate
##    <chr>       <chr>   <chr>          <dbl>
##  1 Bootstrap01 ppv     macro          0.410
##  2 Bootstrap02 ppv     macro          0.424
##  3 Bootstrap03 ppv     macro          0.404
##  4 Bootstrap04 ppv     macro          0.411
##  5 Bootstrap05 ppv     macro          0.439
##  6 Bootstrap06 ppv     macro          0.426
##  7 Bootstrap07 ppv     macro          0.419
##  8 Bootstrap08 ppv     macro          0.413
##  9 Bootstrap09 ppv     macro          0.419
## 10 Bootstrap10 ppv     macro          0.402
## # … with 15 more rows
```
…
