…
```
## $ikea
## # A tibble: 3,694 x 14
##       X1 item_id name  category price old_price sellable_online link 
##    <dbl>   <dbl> <chr> <chr>    <dbl> <chr>     <lgl>           <chr>
##  1     0  9.04e7 FREK… Bar fur…   265 No old p… TRUE            http…
##  2     1  3.69e5 NORD… Bar fur…   995 No old p… FALSE           http…
##  3     2  9.33e6 NORD… Bar fur…  2095 No old p… FALSE           http…
##  4     3  8.02e7 STIG  Bar fur…    69 No old p… TRUE            http…
##  5     4  3.02e7 NORB… Bar fur…   225 No old p… TRUE            http…
##  6     5  1.01e7 INGO… Bar fur…   345 No old p… TRUE            http…
##  7     6  7.04e7 FRAN… Bar fur…   129 No old p… TRUE            http…
##  8     7  6.02e7 DALF… Bar fur…   195 No old p… TRUE            http…
##  9     8  5.04e7 FRAN… Bar fur…   129 No old p… TRUE            http…
## 10     9  6.93e7 EKED… Bar fur…  2176 SR 2,375  TRUE            http…
## # … with 3,684 more rows, and 6 more variables: other_colors <chr>,
## #   short_description <chr>, designer <chr>, depth <dbl>, height <dbl>,
## #   width <dbl>
```
…
